\beamer@sectionintoc {1}{Parity games}{3}{0}{1}
\beamer@sectionintoc {2}{Fixpoint game}{18}{0}{2}
\beamer@sectionintoc {3}{Topological $\mu $-calculus}{23}{0}{3}
\beamer@sectionintoc {4}{Evaluation game}{29}{0}{4}
\beamer@sectionintoc {5}{Bisimulations}{45}{0}{5}
